{
    "博麗霊夢": {
        "card": "デフォルメ霊夢_0000.png",
        "music": [
            "東方永夜抄 ～ Imperishable Night/上海アリス幻樂団 - 少女綺想曲　～ Dream Battle.mp3",
            "東方花映塚 ～ Phantasmagoria of Flower View/上海アリス幻樂団 - 春色小径　～ Colorful Path.mp3",
            "東方獣王園 ～ Unfinished Dream of All Living Ghost/上海アリス幻樂団 - 世界は可愛く出来ている.mp3",
            "幻想曲抜萃 ～ 東方萃夢想/DayDisc/02. 東方妖恋談.mp3",
            "幻想曲抜萃 ～ 東方萃夢想/NightDisc/02. 少女綺想曲 ～ Capriccio.mp3",
            "全人類ノ天楽録 ～ 東方緋想天/ArrangeDisc/02. 東方妖恋談.mp3",
            "核熱造神ヒソウテンソク ～ 東方非想天則/10. 二色蓮花蝶 ～ Ancients.mp3",
            "暗黒能楽集・心綺楼/黄昏フロンティア・上海アリス幻樂団 - 春色小径　～ Colorful Path.mp3",
            "深秘的楽曲集/黄昏フロンティア・上海アリス幻樂団 - 二色蓮花蝶 ～ Red and White.mp3",
            "完全憑依ディスコグラフィ/あきやまうに - 地の色は黄色　～ Primrose.mp3",
            "強欲な獣のムジカ/黄昏フロンティア - 少女綺想曲.mp3"
        ],
        "tags": ["主人公"]
    },
    "霧雨魔理沙": {
        "card": "デフォルメ魔理沙_0000.png",
        "music": [
            "東方永夜抄 ～ Imperishable Night/上海アリス幻樂団 - 恋色マスタースパーク.mp3",
            "東方花映塚 ～ Phantasmagoria of Flower View/上海アリス幻樂団 - オリエンタルダークフライト.mp3",
            "東方獣王園 ～ Unfinished Dream of All Living Ghost/上海アリス幻樂団 - 魔獣スクランブル.mp3",
            "幻想曲抜萃 ～ 東方萃夢想/DayDisc/04. 恋色マジック.mp3",
            "幻想曲抜萃 ～ 東方萃夢想/NightDisc/04. 魔女達の舞踏会.mp3",
            "全人類ノ天楽録 ～ 東方緋想天/ArrangeDisc/03. 星の器 ～ Casket of Star.mp3",
            "核熱造神ヒソウテンソク ～ 東方非想天則/11. 恋色マジック.mp3",
            "暗黒能楽集・心綺楼/黄昏フロンティア・上海アリス幻樂団 - メイガスナイト.mp3",
            "深秘的楽曲集/黄昏フロンティア・上海アリス幻樂団 - 恋色マスタースパーク.mp3",
            "完全憑依ディスコグラフィ/あきやまうに - マッシュルーム・ワルツ.mp3",
            "強欲な獣のムジカ/黄昏フロンティア - 恋色マスタースパーク.mp3"
        ],
        "tags": ["主人公"]
    },
    "ルーミア": {
        "card": "デフォルメルーミア_0000.png",
        "music": [
            "東方紅魔郷 ～ the Embodiment of Scarlet Devil/上海アリス幻樂団 - 妖魔夜行.mp3",
            "東方紅魔郷 ～ the Embodiment of Scarlet Devil/上海アリス幻樂団 - ほおずきみたいに紅い魂.mp3"
        ],
        "tags": ["紅魔郷"]
    },
    "大妖精": {
        "card": "デフォルメ大妖精_0000.png",
        "music": "東方紅魔郷 ～ the Embodiment of Scarlet Devil/上海アリス幻樂団 - ルーネイトエルフ.mp3",
        "tags": ["紅魔郷"]
    },
    "チルノ": {
        "card": "デフォルメチルノ_0000.png",
        "music": [
            "東方紅魔郷 ～ the Embodiment of Scarlet Devil/上海アリス幻樂団 - おてんば恋娘.mp3",
            "東方妖々夢 ～ Perfect Cherry Blossom/上海アリス幻樂団 - 無何有の郷　～ Deep Mountain.mp3",
            "東方輝針城 ～ Double Dealing Character/上海アリス幻樂団 - ミストレイク.mp3",
            "核熱造神ヒソウテンソク ～ 東方非想天則/04. おてんば恋娘.mp3"
        ],
        "tags": ["紅魔郷"]
    },
    "紅美鈴": {
        "card": "デフォルメ美鈴_0000.png",
        "music": [
            "東方紅魔郷 ～ the Embodiment of Scarlet Devil/上海アリス幻樂団 - 明治十七年の上海アリス.mp3",
            "東方紅魔郷 ～ the Embodiment of Scarlet Devil/上海アリス幻樂団 - 上海紅茶館　～ Chinese Tea.mp3",
            "核熱造神ヒソウテンソク ～ 東方非想天則/05. 上海紅茶館 ～ Chinese Tea.mp3",
            "蓬莱人形 ～ Dolls in Pseudo Paradise/04. 明治十七年の上海アリス.mp3",
            "夢違科学世紀 ～ Changeability of Strange Dream/03. 上海紅茶館 ～ Chinese Tea.mp3"
        ],
        "tags": ["紅魔郷"]
    },
    "小悪魔": {
        "card": "デフォルメ小悪魔_0000.png",
        "music": "東方紅魔郷 ～ the Embodiment of Scarlet Devil/上海アリス幻樂団 - ヴワル魔法図書館.mp3",
        "tags": ["紅魔郷"]
    },
    "パチュリー・ノーレッジ": {
        "card": "デフォルメパチュリー_0000.png",
        "music": [
            "東方紅魔郷 ～ the Embodiment of Scarlet Devil/上海アリス幻樂団 - ラクトガール　～ 少女密室.mp3",
            "幻想曲抜萃 ～ 東方萃夢想/DayDisc/10. ラクトガール ～ 少女密室.mp3",
            "幻想曲抜萃 ～ 東方萃夢想/NightDisc/10. ヴワル魔法図書館.mp3",
            "全人類ノ天楽録 ～ 東方緋想天/ArrangeDisc/07. ラクトガール ～ 少女密室.mp3",
            "核熱造神ヒソウテンソク ～ 東方非想天則/13. ヴワル魔法図書館.mp3",
            "卯酉東海道 ～ Retrospective 53 Minutes/09. ラクトガール ～ 少女密室.mp3",
            "東方紅魔郷 ～ the Embodiment of Scarlet Devil/上海アリス幻樂団 - 魔法少女達の百年祭.mp3"
        ],
        "tags": ["紅魔郷"]
    },
    "十六夜咲夜": {
        "card": "デフォルメ咲夜_0000.png",
        "music": [
            "東方紅魔郷 ～ the Embodiment of Scarlet Devil/上海アリス幻樂団 - 月時計　～ ルナ・ダイアル.mp3",
            "東方紅魔郷 ～ the Embodiment of Scarlet Devil/上海アリス幻樂団 - メイドと血の懐中時計.mp3",
            "東方花映塚 ～ Phantasmagoria of Flower View/上海アリス幻樂団 - フラワリングナイト.mp3",
            "幻想曲抜萃 ～ 東方萃夢想/DayDisc/06. メイドと血の懐中時計.mp3",
            "幻想曲抜萃 ～ 東方萃夢想/NightDisc/06. 月時計 ～ ルナ・ダイアル.mp3",
            "全人類ノ天楽録 ～ 東方緋想天/ArrangeDisc/04. フラワリングナイト.mp3",
            "東方紅魔郷 ～ the Embodiment of Scarlet Devil/上海アリス幻樂団 - ツェペシュの幼き末裔.mp3"
        ],
        "tags": ["紅魔郷"]
    },
    "レミリア・スカーレット": {
        "card": "デフォルメレミリア_0000.png",
        "music": [
            "東方紅魔郷 ～ the Embodiment of Scarlet Devil/上海アリス幻樂団 - 亡き王女の為のセプテット.mp3",
            "東方紅魔郷 ～ the Embodiment of Scarlet Devil/上海アリス幻樂団 - ツェペシュの幼き末裔.mp3",
            "幻想曲抜萃 ～ 東方萃夢想/DayDisc/13. 亡き王女の為のセプテット.mp3",
            "全人類ノ天楽録 ～ 東方緋想天/ArrangeDisc/09. 亡き王女の為のセプテット.mp3"
        ],
        "tags": ["紅魔郷"]
    },
    "フランドール・スカーレット": {
        "card": "デフォルメフラン_0001.png",
        "music": [
            "東方紅魔郷 ～ the Embodiment of Scarlet Devil/上海アリス幻樂団 - U.N.オーエンは彼女なのか？.mp3",
            "東方紅魔郷 ～ the Embodiment of Scarlet Devil/上海アリス幻樂団 - 魔法少女達の百年祭.mp3",
            "強欲な獣のムジカ/黄昏フロンティア - U.N.オーエンは彼女なのか？.mp3",
            "蓬莱人形 ～ Dolls in Pseudo Paradise/11. U.N.オーエンは彼女なのか？.mp3"
        ],
        "tags": ["紅魔郷"]
    },

    "レティ・ホワイトロック": {
        "card": "デフォルメレティ_0000.png",
        "music": "東方妖々夢 ～ Perfect Cherry Blossom/上海アリス幻樂団 - クリスタライズシルバー.mp3",
        "tags": ["妖々夢"]
    },
    "橙": {
        "card": "デフォルメ橙_0000.png",
        "music": [
            "東方妖々夢 ～ Perfect Cherry Blossom/上海アリス幻樂団 - ティアオイエツォン(withered leaf).mp3",
            "東方妖々夢 ～ Perfect Cherry Blossom/上海アリス幻樂団 - 遠野幻想物語.mp3",
            "東方妖々夢 ～ Perfect Cherry Blossom/上海アリス幻樂団 - 妖々跋扈.mp3"
        ],
        "tags": ["妖々夢"]
    },
    "アリス・マーガトロイド": {
        "card": "デフォルメアリス＆上海蓬莱_0000.png",
        "music": [
            "東方妖々夢 ～ Perfect Cherry Blossom/上海アリス幻樂団 - 人形裁判　～ 人の形弄びし少女.mp3",
            "東方妖々夢 ～ Perfect Cherry Blossom/上海アリス幻樂団 - ブクレシュティの人形師.mp3",
            "幻想曲抜萃 ～ 東方萃夢想/DayDisc/08. ブクレシュティの人形師.mp3",
            "幻想曲抜萃 ～ 東方萃夢想/NightDisc/08. 人形裁判.mp3",
            "全人類ノ天楽録 ～ 東方緋想天/ArrangeDisc/05. ブクレシュティの人形師.mp3",
            "核熱造神ヒソウテンソク ～ 東方非想天則/12. the Grimoire of Alice.mp3",
            "夢違科学世紀 ～ Changeability of Strange Dream/08. 人形裁判 ～ 人の形弄びし少女.mp3"
        ],
        "tags": ["妖々夢"]
    },
    "リリーホワイト": {
        "card": "デフォルメリリー_0000.png",
        "music": "東方妖々夢 ～ Perfect Cherry Blossom/上海アリス幻樂団 - 天空の花の都.mp3",
        "tags": ["妖々夢"]
    },
    "ルナサ/メルラン/リリカ・プリズムリバー": {
        "card": [
            "デフォルメルナサ_0000.png",
            "デフォルメメルラン_0000.png",
            "デフォルメリリカ_0000.png"
        ],
        "music": "東方妖々夢 ～ Perfect Cherry Blossom/上海アリス幻樂団 - 幽霊楽団　～ Phantom Ensemble.mp3",
        "tags": ["妖々夢"]
    },
    "魂魄妖夢": {
        "card": "デフォルメ妖夢_0001.png",
        "music": [
            "東方妖々夢 ～ Perfect Cherry Blossom/上海アリス幻樂団 - 東方妖々夢　～ Ancient Temple.mp3",
            "東方妖々夢 ～ Perfect Cherry Blossom/上海アリス幻樂団 - 広有射怪鳥事　～ Till When？.mp3",
            "東方妖々夢 ～ Perfect Cherry Blossom/上海アリス幻樂団 - アルティメットトゥルース.mp3",
            "幻想曲抜萃 ～ 東方萃夢想/DayDisc/12. 広有射怪鳥事 ～ Till When？.mp3",
            "幻想曲抜萃 ～ 東方萃夢想/NightDisc/12. 東方妖々夢 ～ Ancient Temple.mp3",
            "全人類ノ天楽録 ～ 東方緋想天/ArrangeDisc/06. 広有射怪鳥事 ～ Till When？.mp3",
            "蓮台野夜行 ～ Ghostly Field Club/03. 東方妖々夢 ～ Ancient Temple.mp3"
        ],
        "tags": ["妖々夢"]
    },
    "西行寺幽々子": {
        "card": "デフォルメ幽々子_0000.png",
        "music": [
            "東方妖々夢 ～ Perfect Cherry Blossom/上海アリス幻樂団 - 幽雅に咲かせ、墨染の桜　～ Border of Life.mp3",
            "東方妖々夢 ～ Perfect Cherry Blossom/上海アリス幻樂団 - ボーダーオブライフ.mp3",
            "東方神霊廟 ～ Ten Desires/上海アリス幻樂団 - 死霊の夜桜.mp3",
            "東方神霊廟 ～ Ten Desires/上海アリス幻樂団 - ゴーストリード.mp3",
            "幻想曲抜萃 ～ 東方萃夢想/DayDisc/14. 幽雅に咲かせ 墨染の桜 ～ Border of Life..mp3",
            "全人類ノ天楽録 ～ 東方緋想天/ArrangeDisc/08. 幽雅に咲かせ、墨染の桜 ～ Border of Life.mp3"
        ],
        "tags": ["妖々夢"]
    },
    "八雲藍": {
        "card": "デフォルメ藍_0000.png",
        "music": [
            "東方妖々夢 ～ Perfect Cherry Blossom/上海アリス幻樂団 - 少女幻葬　～ Necro-Fantasy.mp3",
            "東方妖々夢 ～ Perfect Cherry Blossom/上海アリス幻樂団 - 妖々跋扈　～ Who done it!.mp3",
            "蓮台野夜行 ～ Ghostly Field Club/10. 少女幻葬 ～ Necro-Fantasy.mp3"
        ],
        "tags": ["妖々夢"]
    },
    "八雲紫": {
        "card": "デフォルメ紫_0000.png",
        "music": [
            "東方妖々夢 ～ Perfect Cherry Blossom/上海アリス幻樂団 - ネクロファンタジア.mp3",
            "幻想曲抜萃 ～ 東方萃夢想/NightDisc/16. 夜が降りてくる ～ Evening Star.mp3",
            "全人類ノ天楽録 ～ 東方緋想天/ArrangeDisc/10. 夜が降りてくる.mp3",
            "完全憑依ディスコグラフィ/上海アリス幻樂団 - 夜が降りてくる　～ Evening Star.mp3",
            "完全憑依ディスコグラフィ/上海アリス幻樂団 - 憑坐は夢と現の間に　～ Necro-Fantasia.mp3",
            "夢違科学世紀 ～ Changeability of Strange Dream/07. 夜が降りてくる ～ Evening Star.mp3",
            "大空魔術 ～ Magical Astronomy/09. ネクロファンタジア.mp3",
            "七夕坂夢幻能 ~ Taboo Japan Disentanglement/上海アリス幻樂団 - 憑坐は夢と現の間に 〜 Necro-Fantasia"
        ],
        "tags": ["妖々夢"]
    },
    "リグル･ナイトバグ": {
        "card": "デフォルメリグル_0000.png",
        "music": [
            "東方永夜抄 ～ Imperishable Night/上海アリス幻樂団 - 蠢々秋月　～ Mooned Insect.mp3",
            "東方永夜抄 ～ Imperishable Night/上海アリス幻樂団 - 幻視の夜　～ Ghostly Eyes.mp3"
        ],
        "tags": ["永夜抄"]
    },
    "ミスティア・ローレライ": {
        "card": "デフォルメミスティア_0000.png",
        "music": [
            "東方永夜抄 ～ Imperishable Night/上海アリス幻樂団 - もう歌しか聞こえない.mp3",
            "東方永夜抄 ～ Imperishable Night/上海アリス幻樂団 - 夜雀の歌声　～ Night Bird.mp3"
        ],
        "tags": ["永夜抄"]
    },
    "上白沢慧音": {
        "card": [
            "デフォルメ慧音_0000.png",
            "デフォルメ慧音_0001.png"
        ],
        "music": [
            "東方永夜抄 ～ Imperishable Night/上海アリス幻樂団 - プレインエイジア.mp3",
            "東方永夜抄 ～ Imperishable Night/上海アリス幻樂団 - 懐かしき東方の血　～ Old World.mp3",
            "東方永夜抄 ～ Imperishable Night/上海アリス幻樂団 - エクステンドアッシュ　～ 蓬莱人.mp3"
        ],
        "tags": ["永夜抄"]
    },
    "因幡てゐ": {
        "card": "デフォルメてゐ_0000.png",
        "music": [
            "東方花映塚 ～ Phantasmagoria of Flower View/上海アリス幻樂団 - お宇佐さまの素い幡.mp3",
            "東方永夜抄 ～ Imperishable Night/上海アリス幻樂団 - シンデレラケージ　～ Kagome-Kagome.mp3",
            "卯酉東海道 ～ Retrospective 53 Minutes/06. お宇佐さまの素い幡.mp3"
        ],
        "tags": ["永夜抄", "花映塚"]
    },
    "鈴仙・優曇華院・イナバ": {
        "card": "デフォルメ鈴仙_0000.png",
        "music": [
            "東方永夜抄 ～ Imperishable Night/上海アリス幻樂団 - 狂気の瞳　～ Invisible Full Moon.mp3",
            "全人類ノ天楽録 ～ 東方緋想天/ArrangeDisc/12. 狂気の瞳 ～ Invisible Full Moon.mp3",
            "深秘的楽曲集·補 東方深秘録初回特典CD/黄昏フロンティア - 狂気の瞳～ Invisible Full Moon.mp3",
            "完全憑依ディスコグラフィ/あきやまうに - 永遠に続く回廊.mp3"
        ],
        "tags": ["永夜抄"]
    },
    "八意永琳": {
        "card": "デフォルメ永琳_0000.png",
        "music": [
            "東方永夜抄 ～ Imperishable Night/上海アリス幻樂団 - 千年幻想郷　～ History of the Moon.mp3",
            "東方永夜抄 ～ Imperishable Night/上海アリス幻樂団 - ヴォヤージュ1969.mp3",
            "東方永夜抄 ～ Imperishable Night/上海アリス幻樂団 - ヴォヤージュ1970.mp3",
            "夢違科学世紀 ～ Changeability of Strange Dream/04. ヴォヤージュ1969.mp3",
            "卯酉東海道 ～ Retrospective 53 Minutes/10. 千年幻想郷 ～ History of the Moon.mp3"
        ],
        "tags": ["永夜抄"]
    },
    "蓬莱山輝夜": {
        "card": "デフォルメ輝夜_0000.png",
        "music": [
            "東方永夜抄 ～ Imperishable Night/上海アリス幻樂団 - 竹取飛翔　～ Lunatic Princess.mp3",
            "卯酉東海道 ～ Retrospective 53 Minutes/03. 竹取飛翔 ～ Lunatic Princess.mp3"
        ],
        "tags": ["永夜抄"]
    },
    "藤原妹紅": {
        "card": "デフォルメ妹紅_0000.png",
        "music": [
            "東方永夜抄 ～ Imperishable Night/上海アリス幻樂団 - 月まで届け、不死の煙.mp3",
            "深秘的楽曲集/黄昏フロンティア・上海アリス幻樂団 - 月まで届け、不死の煙.mp3",
            "完全憑依ディスコグラフィ/あきやまうに - 不滅のレッドソウル.mp3",
            "卯酉東海道 ～ Retrospective 53 Minutes/07. 月まで届け不死の煙.mp3"
        ],
        "tags": ["永夜抄"]
    },

    "メディスン・メランコリー": {
        "card": "デフォルメメディスン_0000.png",
        "music": "東方花映塚 ～ Phantasmagoria of Flower View/上海アリス幻樂団 - ポイズンボディ　～ Forsaken Doll.mp3",
        "tags": ["花映塚"]
    },
    "風見幽香": {
        "card": "デフォルメ幽香_0000.png",
        "music": "東方花映塚 ～ Phantasmagoria of Flower View/上海アリス幻樂団 - 今昔幻想郷　～ Flower Land.mp3",
        "tags": ["花映塚"]

    },
    "小野塚小町": {
        "card": "デフォルメ小町_0000.png",
        "music": [
            "東方花映塚 ～ Phantasmagoria of Flower View/上海アリス幻樂団 - 彼岸帰航　～ Riverside View.mp3",
            "全人類ノ天楽録 ～ 東方緋想天/ArrangeDisc/14. 彼岸帰航 ～ Riverside View.mp3",
            "卯酉東海道 ～ Retrospective 53 Minutes/04. 彼岸帰航 ～ Riverside View.mp3"
        ],
        "tags": ["花映塚"]

    },
    "四季映姫・ヤマザナドゥ": {
        "card": "デフォルメ映姫_0000.png",
        "music": [
            "東方花映塚 ～ Phantasmagoria of Flower View/上海アリス幻樂団 - 六十年目の東方裁判　～ Fate of Sixty Years.mp3",
            "伊弉諾物質 ～ Neo-traditionalism of Japan/04. 六十年目の東方裁判 ～ Fate of Sixty Years.mp3"
        ],
        "tags": ["花映塚"]
    },

    "秋静葉": {
        "card": "デフォルメ静葉_0000.png",
        "music": "東方風神録 ～ Mountain of Faith/上海アリス幻樂団 - 人恋し神様　～ Romantic Fall.mp3",
        "tags": ["風神録"]
    },
    "秋穣子": {
        "card": "デフォルメ穣子_0000.png",
        "music": "東方風神録 ～ Mountain of Faith/上海アリス幻樂団 - 稲田姫様に叱られるから.mp3",
        "tags": ["風神録"]
    },
    "鍵山雛": {
        "card": "デフォルメ雛_0000.png",
        "music": [
            "東方風神録 ～ Mountain of Faith/上海アリス幻樂団 - 運命のダークサイド.mp3",
            "東方風神録 ～ Mountain of Faith/上海アリス幻樂団 - 厄神様の通り道　～ Dark Road.mp3"
        ],
        "tags": ["風神録"]
    },
    "河城にとり": {
        "card": "デフォルメにとり_0000.png",
        "music": [
            "東方風神録 ～ Mountain of Faith/上海アリス幻樂団 - 芥川龍之介の河童　～ Candid Friend.mp3",
            "東方風神録 ～ Mountain of Faith/上海アリス幻樂団 - 神々が恋した幻想郷.mp3",
            "暗黒能楽集・心綺楼/黄昏フロンティア・上海アリス幻樂団 - 芥川龍之介の河童　～ Candid Friend.mp3",
            "完全憑依ディスコグラフィ/あきやまうに - 沢の河童の技術力.mp3"
        ],
        "tags": ["風神録"]
    },
    "犬走椛": {
        "card": "デフォルメ椛_0000.png",
        "music": "東方風神録 ～ Mountain of Faith/上海アリス幻樂団 - フォールオブフォール　～ 秋めく滝.mp3",
        "tags": ["風神録"]
    },
    "射命丸文": {
        "card": "デフォルメ文_0000.png",
        "music": [
            "東方風神録 ～ Mountain of Faith/上海アリス幻樂団 - 妖怪の山　～ Mysterious Mountain.mp3",
            "東方花映塚 ～ Phantasmagoria of Flower View/上海アリス幻樂団 - 風神少女　 (Short Version).mp3",
            "全人類ノ天楽録 ～ 東方緋想天/ArrangeDisc/13. 風神少女.mp3"
        ],
        "tags": ["風神録"]
    },
    "東風谷早苗": {
        "card": "デフォルメ早苗_0000.png",
        "music": [
            "東方風神録 ～ Mountain of Faith/上海アリス幻樂団 - 信仰は儚き人間の為に.mp3",
            "東方風神録 ～ Mountain of Faith/上海アリス幻樂団 - 少女が見た日本の原風景.mp3",
            "東方地霊殿 ～ Subterranean Animism/上海アリス幻樂団 - ラストリモート.mp3",
            "核熱造神ヒソウテンソク ～ 東方非想天則/03. 信仰は儚き人間の為に.mp3"
        ],
        "tags": ["風神録"]
    },
    "八坂神奈子": {
        "card": "デフォルメ神奈子_0000.png",
        "music": [
            "東方風神録 ～ Mountain of Faith/上海アリス幻樂団 - 神さびた古戦場　～ Suwa Foughten Field.mp3",
            "東方風神録 ～ Mountain of Faith/上海アリス幻樂団 - 御柱の墓場　～ Grave of Being.mp3",
            "東方風神録 ～ Mountain of Faith/上海アリス幻樂団 - 明日ハレの日、ケの昨日.mp3",
            "強欲な獣のムジカ/黄昏フロンティア - 神さびた古戦場.mp3"
        ],
        "tags": ["風神録"]
    },
    "洩矢諏訪子": {
        "card": "デフォルメ諏訪子_0000.png",
        "music": [
            "東方風神録 ～ Mountain of Faith/上海アリス幻樂団 - ネイティブフェイス.mp3",
            "核熱造神ヒソウテンソク ～ 東方非想天則/07. 明日ハレの日、ケの昨日.mp3",
            "未知の花 魅知の旅/03. 明日ハレの日、ケの昨日.mp3"
        ],
        "tags": ["風神録"]
    },

    "キスメ": {
        "card": "デフォルメキスメ_0000.png",
        "music": "東方地霊殿 ～ Subterranean Animism/上海アリス幻樂団 - 暗闇の風穴.mp3",
        "tags": ["地霊殿"]
    },
    "黒谷ヤマメ": {
        "card": "デフォルメヤマメ_0000.png",
        "music": [
            "東方地霊殿 ～ Subterranean Animism/上海アリス幻樂団 - 封じられた妖怪　～ Lost Place.mp3",
            "強欲な獣のムジカ/黄昏フロンティア - 封じられた妖怪.mp3"
        ],
        "tags": ["地霊殿"]
    },
    "水橋パルスィ": {
        "card": "デフォルメパルスィ_0000.png",
        "music": [
            "東方地霊殿 ～ Subterranean Animism/上海アリス幻樂団 - 緑眼のジェラシー.mp3",
            "東方地霊殿 ～ Subterranean Animism/上海アリス幻樂団 - 渡る者の途絶えた橋.mp3"
        ],
        "tags": ["地霊殿"]
    },
    "星熊勇儀": {
        "card": "デフォルメ勇儀_0000.png",
        "music": [
            "東方地霊殿 ～ Subterranean Animism/上海アリス幻樂団 - 華のさかづき大江山.mp3",
            "東方地霊殿 ～ Subterranean Animism/上海アリス幻樂団 - 旧地獄街道を行く.mp3",
            "強欲な獣のムジカ/黄昏フロンティア - 華のさかづき大江山.mp3"
        ],
        "tags": ["地霊殿"]
    },
    "古明地さとり": {
        "card": "デフォルメさとり_0000.png",
        "music": "東方地霊殿 ～ Subterranean Animism/上海アリス幻樂団 - 少女さとり　～ 3rd eye.mp3",
        "tags": ["地霊殿"]
    },
    "火焔猫燐": {
        "card": "デフォルメ燐_0000.png",
        "music": [
            "東方地霊殿 ～ Subterranean Animism/上海アリス幻樂団 - 死体旅行　～ Be of good cheer!.mp3",
            "東方地霊殿 ～ Subterranean Animism/上海アリス幻樂団 - 廃獄ララバイ.mp3",
            "東方地霊殿 ～ Subterranean Animism/上海アリス幻樂団 - ハートフェルトファンシー.mp3",
            "東方地霊殿 ～ Subterranean Animism/上海アリス幻樂団 - 業火マントル.mp3",
            "伊弉諾物質 ～ Neo-traditionalism of Japan/03. ハートフェルトファンシー.mp3"
        ],
        "tags": ["地霊殿"]
    },
    "霊烏路空": {
        "card": "デフォルメ空_0000.png",
        "music": [
            "東方地霊殿 ～ Subterranean Animism/上海アリス幻樂団 - 霊知の太陽信仰　～ Nuclear Fusion.mp3",
            "核熱造神ヒソウテンソク ～ 東方非想天則/06. 霊知の太陽信仰 ～ Nuclear Fusion.mp3",
            "強欲な獣のムジカ/黄昏フロンティア - 霊知の太陽信仰.mp3"
        ],
        "tags": ["地霊殿"]
    },
    "古明地こいし": {
        "card": "デフォルメこいし_0000.png",
        "music": [
            "東方地霊殿 ～ Subterranean Animism/上海アリス幻樂団 - ハルトマンの妖怪少女.mp3",
            "暗黒能楽集・心綺楼/黄昏フロンティア・上海アリス幻樂団 - ハルトマンの妖怪少女.mp3",
            "完全憑依ディスコグラフィ/あきやまうに - 地底に咲く薔薇.mp3",
            "鳥船遺跡 ～ Trojan Green Asteroid/07. ハルトマンの妖怪少女.mp3"
        ],
        "tags": ["地霊殿"]
    },
    "ナズーリン": {
        "card": "デフォルメナズーリン_0000.png",
        "music": [
            "東方星蓮船 ～ Undefined Fantastic Object/上海アリス幻樂団 - 小さな小さな賢将.mp3",
            "東方星蓮船 ～ Undefined Fantastic Object/上海アリス幻樂団 - 春の湊に.mp3",
            "東方星蓮船 ～ Undefined Fantastic Object/上海アリス幻樂団 - 魔界地方都市エソテリア.mp3"
        ],
        "tags": ["星蓮船"]
    },
    "多々良小傘": {
        "card": "デフォルメ小傘_0000.png",
        "music": [
            "東方星蓮船 ～ Undefined Fantastic Object/上海アリス幻樂団 - 万年置き傘にご注意を.mp3",
            "東方星蓮船 ～ Undefined Fantastic Object/上海アリス幻樂団 - 閉ざせし雲の通い路.mp3",
            "東方星蓮船 ～ Undefined Fantastic Object/上海アリス幻樂団 - 夜空のユーフォーロマンス.mp3",
            "東方神霊廟 ～ Ten Desires/上海アリス幻樂団 - 素敵な墓場で暮しましょ.mp3",
            "伊弉諾物質 ～ Neo-traditionalism of Japan/10. 素敵な墓場で暮しましょ.mp3",
            "強欲な獣のムジカ/黄昏フロンティア - 万年置き傘にご注意を.mp3"
        ],
        "tags": ["星蓮船"]
    },
    "雲居一輪": {
        "card": "デフォルメ一輪＆雲山_0000.png",
        "music": [
            "東方星蓮船 ～ Undefined Fantastic Object/上海アリス幻樂団 - 時代親父とハイカラ少女.mp3",
            "東方星蓮船 ～ Undefined Fantastic Object/上海アリス幻樂団 - スカイルーイン.mp3",
            "暗黒能楽集・心綺楼/黄昏フロンティア・上海アリス幻樂団 - 時代親父とハイカラ少女.mp3",
            "深秘的楽曲集/黄昏フロンティア・上海アリス幻樂団 - 時代親父とハイカラ少女.mp3",
            "完全憑依ディスコグラフィ/あきやまうに - 聖輦船空を往く.mp3"
        ],
        "tags": ["星蓮船"]
    },
    "村紗水蜜": {
        "card": "デフォルメ村紗_0000.png",
        "music": [
            "東方星蓮船 ～ Undefined Fantastic Object/上海アリス幻樂団 - キャプテン・ムラサ.mp3",
            "強欲な獣のムジカ/黄昏フロンティア - キャプテンムラサ.mp3"
        ],
        "tags": ["星蓮船"]
    },
    "寅丸星": {
        "card": "デフォルメ星_0000.png",
        "music": "東方星蓮船 ～ Undefined Fantastic Object/上海アリス幻樂団 - 虎柄の毘沙門天.mp3",
        "tags": ["星蓮船"]
    },
    "聖白蓮": {
        "card": "デフォルメ聖_0000.png",
        "music": [
            "東方星蓮船 ～ Undefined Fantastic Object/上海アリス幻樂団 - 感情の摩天楼　～ Cosmic Mind.mp3",
            "暗黒能楽集・心綺楼/黄昏フロンティア・上海アリス幻樂団 - 感情の摩天楼　～ Cosmic Mind.mp3",
            "深秘的楽曲集/黄昏フロンティア・上海アリス幻樂団 - 感情の摩天楼　～ Cosmic Mind.mp3",
            "完全憑依ディスコグラフィ/あきやまうに - 法力の下の平等.mp3",
            "鳥船遺跡 ～ Trojan Green Asteroid/09. 感情の摩天楼 ～ Cosmic Mind.mp3"
        ],
        "tags": ["星蓮船"]
    },
    "封獣ぬえ": {
        "card": "デフォルメぬえ_0000.png",
        "music": [
            "東方星蓮船 ～ Undefined Fantastic Object/上海アリス幻樂団 - 平安のエイリアン.mp3",
            "東方星蓮船 ～ Undefined Fantastic Object/上海アリス幻樂団 - 夜空のユーフォーロマンス.mp3",
            "東方星蓮船 ～ Undefined Fantastic Object/上海アリス幻樂団 - 幽霊客船の時空を越えた旅.mp3",
            "東方星蓮船 ～ Undefined Fantastic Object/上海アリス幻樂団 - 法界の火.mp3",
            "東方神霊廟 ～ Ten Desires/上海アリス幻樂団 - 妖怪裏参道.mp3",
            "鳥船遺跡 ～ Trojan Green Asteroid/06. 夜空のユーフォーロマンス.mp3"
        ],
        "tags": ["星蓮船"]
    },

    "幽谷響子": {
        "card": "デフォルメ響子_0000.png",
        "music": [
            "東方神霊廟 ～ Ten Desires/上海アリス幻樂団 - 門前の妖怪小娘.mp3",
            "東方神霊廟 ～ Ten Desires/上海アリス幻樂団 - 妖怪寺へようこそ.mp3"
        ],
        "tags": ["神霊廟"]
    },
    "宮古芳香": {
        "card": "デフォルメ芳香_0000.png",
        "music": [
            "東方神霊廟 ～ Ten Desires/上海アリス幻樂団 - リジッドパラダイス.mp3",
            "伊弉諾物質 ～ Neo-traditionalism of Japan/10. 素敵な墓場で暮しましょ.mp3"
        ],
        "tags": ["神霊廟"]
    },
    "霍青娥": {
        "card": "デフォルメ青娥_0000.png",
        "music": [
            "東方神霊廟 ～ Ten Desires/上海アリス幻樂団 - 古きユアンシェン.mp3",
            "東方神霊廟 ～ Ten Desires/上海アリス幻樂団 - デザイアドライブ.mp3",
            "鳥船遺跡 ～ Trojan Green Asteroid/03. デザイアドライブ.mp3"
        ],
        "tags": ["神霊廟"]
    },
    "蘇我屠自古": {
        "card": "デフォルメ屠自古_0000.png",
        "music": "東方神霊廟 ～ Ten Desires/上海アリス幻樂団 - 夢殿大祀廟.mp3",
        "tags": ["神霊廟"]
    },
    "物部布都": {
        "card": "デフォルメ布都_0000.png",
        "music": [
            "東方神霊廟 ～ Ten Desires/上海アリス幻樂団 - 大神神話伝.mp3",
            "暗黒能楽集・心綺楼/黄昏フロンティア・上海アリス幻樂団 - 大神神話伝.mp3",
            "深秘的楽曲集/黄昏フロンティア・上海アリス幻樂団 - 大神神話伝.mp3",
            "完全憑依ディスコグラフィ/あきやまうに - 恒常不変の参廟祀.mp3",
            "旧約酒場 ～ Dateless Bar Old Adam/上海アリス幻樂団 - 大神神話伝.mp3"
        ],
        "tags": ["神霊廟"]
    },
    "豊聡耳神子": {
        "card": "デフォルメ神子_0000.png",
        "music": [
            "東方神霊廟 ～ Ten Desires/上海アリス幻樂団 - 聖徳伝説　～　True Administrator.mp3",
            "東方神霊廟 ～ Ten Desires/上海アリス幻樂団 - 小さな欲望の星空.mp3",
            "暗黒能楽集・心綺楼/黄昏フロンティア・上海アリス幻樂団 - 聖徳伝説　～ True Administrator.mp3",
            "深秘的楽曲集/黄昏フロンティア・上海アリス幻樂団 - 聖徳伝説　～ True Administrator.mp3",
            "完全憑依ディスコグラフィ/あきやまうに - 光輝く天球儀.mp3"
        ],
        "tags": ["神霊廟"]
    },
    "二ッ岩マミゾウ": {
        "card": "デフォルメマミゾウ_0000.png",
        "music": [
            "東方神霊廟 ～ Ten Desires/上海アリス幻樂団 - 佐渡のニッ岩.mp3",
            "暗黒能楽集・心綺楼/黄昏フロンティア・上海アリス幻樂団 - 佐渡のニッ岩.mp3",
            "深秘的楽曲集/黄昏フロンティア・上海アリス幻樂団 - 幻想郷の二ッ岩.mp3",
            "完全憑依ディスコグラフィ/あきやまうに - 深緑の狸森にて.mp3"
        ],
        "tags": ["神霊廟"]
    },

    "わかさぎ姫": {
        "card": "デフォルメわかさぎ姫_0000.png",
        "music": [
            "東方輝針城 ～ Double Dealing Character/上海アリス幻樂団 - 秘境のマーメイド.mp3",
            "東方輝針城 ～ Double Dealing Character/上海アリス幻樂団 - ミストレイク.mp3"
        ],
        "tags": ["輝針城"]
    },
    "赤蛮奇": {
        "card": "デフォルメ赤蛮奇_0000.png",
        "music": [
            "東方輝針城 ～ Double Dealing Character/上海アリス幻樂団 - 柳の下のデュラハン.mp3",
            "東方輝針城 ～ Double Dealing Character/上海アリス幻樂団 - 運河を行き交う人妖.mp3"
        ],
        "tags": ["輝針城"]
    },
    "今泉影狼": {
        "card": "デフォルメ影狼_0000.png",
        "music": [
            "東方輝針城 ～ Double Dealing Character/上海アリス幻樂団 - 孤独なウェアウルフ.mp3",
            "東方輝針城 ～ Double Dealing Character/上海アリス幻樂団 - 満月の竹林.mp3"
        ],
        "tags": ["輝針城"]
    },
    "九十九弁々・八橋": {
        "card": [
            "デフォルメ弁々_0000.png",
            "デフォルメ八橋_0000.png"
        ],
        "music": [
            "東方輝針城 ～ Double Dealing Character/上海アリス幻樂団 - 幻想浄瑠璃.mp3",
            "東方輝針城 ～ Double Dealing Character/上海アリス幻樂団 - マジカルストーム.mp3",
            "東方輝針城 ～ Double Dealing Character/上海アリス幻樂団 - 魔力の雷雲.mp3"
        ],
        "tags": ["輝針城"]
    },
    "鬼人正邪": {
        "card": "デフォルメ正邪_0000.png",
        "music": [
            "東方輝針城 ～ Double Dealing Character/上海アリス幻樂団 - リバースイデオロギー.mp3",
            "東方輝針城 ～ Double Dealing Character/上海アリス幻樂団 - 空中に沈む輝針城.mp3",
            "東方輝針城 ～ Double Dealing Character/上海アリス幻樂団 - 針小棒大の天守閣.mp3",
            "旧約酒場 ～ Dateless Bar Old Adam/上海アリス幻樂団 - リバースイデオロギー.mp3",
            "燕石博物誌 ～ Dr.Latency's Freak Report/上海アリス幻樂団 - 空中に沈む輝針城.mp3"
        ],
        "tags": ["輝針城"]
    },
    "少名針妙丸": {
        "card": "デフォルメ針妙丸_0000.png",
        "music": [
            "東方輝針城 ～ Double Dealing Character/上海アリス幻樂団 - 輝く針の小人族　～ Little Princess.mp3",
            "深秘的楽曲集/黄昏フロンティア・上海アリス幻樂団 - 輝く針の小人族　～ Little Princess.mp3",
            "完全憑依ディスコグラフィ/あきやまうに - 落日に映える逆さ城.mp3"
        ],
        "tags": ["輝針城"]
    },
    "堀川雷鼓": {
        "card": "デフォルメ雷鼓_0000.png",
        "music": "東方輝針城 ～ Double Dealing Character/上海アリス幻樂団 - 始原のビート　～ Pristine Beat.mp3",
        "tags": ["輝針城"]
    },

    "清蘭": {
        "card": "デフォルメ清蘭_0000.png",
        "music": [
            "東方紺珠伝 ～ Legacy of Lunatic Kingdom/上海アリス幻樂団 - 兎は舞い降りた.mp3",
            "東方紺珠伝 ～ Legacy of Lunatic Kingdom/上海アリス幻樂団 - 忘れがたき、よすがの緑.mp3"
        ],
        "tags": ["紺珠伝"]
    },
    "鈴瑚": {
        "card": "デフォルメ鈴瑚_0000.png",
        "music": [
            "東方紺珠伝 ～ Legacy of Lunatic Kingdom/上海アリス幻樂団 - 九月のパンプキン.mp3",
            "東方紺珠伝 ～ Legacy of Lunatic Kingdom/上海アリス幻樂団 - 湖は浄めの月光を映して.mp3",
            "燕石博物誌 ～ Dr.Latency's Freak Report/上海アリス幻樂団 - 九月のパンプキン.mp3"
        ],
        "tags": ["紺珠伝"]
    },
    "ドレミー・スイート": {
        "card": "デフォルメドレミー_0000.png",
        "music": [
            "東方紺珠伝 ～ Legacy of Lunatic Kingdom/上海アリス幻樂団 - 永遠の春夢.mp3",
            "東方紺珠伝 ～ Legacy of Lunatic Kingdom/上海アリス幻樂団 - 宇宙を飛ぶ不思議な巫女.mp3",
            "東方紺珠伝 ～ Legacy of Lunatic Kingdom/上海アリス幻樂団 - 見た事も無い悪夢の世界.mp3",
            "完全憑依ディスコグラフィ/上海アリス幻樂団 - 永遠の春夢.mp3",
            "完全憑依ディスコグラフィ/あきやまうに - スリープシープ・パレード.mp3"
        ],
        "tags": ["紺珠伝"]
    },
    "稀神サグメ": {
        "card": "デフォルメサグメ_0000.png",
        "music": [
            "東方紺珠伝 ～ Legacy of Lunatic Kingdom/上海アリス幻樂団 - 逆転するホイールオブフォーチュン.mp3",
            "東方紺珠伝 ～ Legacy of Lunatic Kingdom/上海アリス幻樂団 - 凍り付いた永遠の都.mp3",
            "燕石博物誌 ～ Dr.Latency's Freak Report/上海アリス幻樂団 - 凍り付いた永遠の都.mp3"
        ],
        "tags": ["紺珠伝"]
    },
    "クラウンピース": {
        "card": "デフォルメクラウンピース_0001.png",
        "music": [
            "東方紺珠伝 ～ Legacy of Lunatic Kingdom/上海アリス幻樂団 - 星条旗のピエロ.mp3",
            "東方紺珠伝 ～ Legacy of Lunatic Kingdom/上海アリス幻樂団 - 遥か３８万キロのボヤージュ.mp3"
        ],
        "tags": ["紺珠伝"]
    },
    "純狐": {
        "card": "デフォルメ純狐_0000.png",
        "music": [
            "東方紺珠伝 ～ Legacy of Lunatic Kingdom/上海アリス幻樂団 - ピュアヒューリーズ　～ 心の在処.mp3",
            "東方紺珠伝 ～ Legacy of Lunatic Kingdom/上海アリス幻樂団 - 故郷の星が映る海.mp3",
            "燕石博物誌 ～ Dr.Latency's Freak Report/上海アリス幻樂団 - ピュアヒューリーズ　～ 心の在処.mp3",
            "燕石博物誌 ～ Dr.Latency's Freak Report/上海アリス幻樂団 - 故郷の星が映る海.mp3"
        ],
        "tags": ["紺珠伝"]
    },
    "ヘカーティア・ラピスラズリ": {
        "card": "デフォルメヘカーティア_0000.png",
        "music": [
            "東方紺珠伝 ～ Legacy of Lunatic Kingdom/上海アリス幻樂団 - パンデモニックプラネット.mp3",
            "旧約酒場 ～ Dateless Bar Old Adam/上海アリス幻樂団 - パンデモニックプラネット.mp3"
        ],
        "tags": ["紺珠伝"]
    },

    "エタニティラルバ": {
        "card": "デフォルメエタニティラルバ_0000.png",
        "music": [
            "東方天空璋 ～ Hidden Star in Four Seasons/上海アリス幻樂団 - 真夏の妖精の夢.mp3",
            "東方天空璋 ～ Hidden Star in Four Seasons/上海アリス幻樂団 - 真夏の妖精の夢.mp3"
        ],
        "tags": ["天空璋"]
    },
    "坂田ネムノ": {
        "card": "デフォルメネムノ_0000.png",
        "music": [
            "東方天空璋 ～ Hidden Star in Four Seasons/上海アリス幻樂団 - 山奥のエンカウンター.mp3",
            "東方天空璋 ～ Hidden Star in Four Seasons/上海アリス幻樂団 - 色無き風は妖怪の山に.mp3"
        ],
        "tags": ["天空璋"]
    },
    "高麗野あうん": {
        "card": "デフォルメあうん_0000.png",
        "music": [
            "東方天空璋 ～ Hidden Star in Four Seasons/上海アリス幻樂団 - 一対の神獣.mp3",
            "東方天空璋 ～ Hidden Star in Four Seasons/上海アリス幻樂団 - 桜色の海を泳いで.mp3"
        ],
        "tags": ["天空璋"]
    },
    "矢田寺成美": {
        "card": "デフォルメ成美_0000.png",
        "music": [
            "東方天空璋 ～ Hidden Star in Four Seasons/上海アリス幻樂団 - 魔法の笠地蔵.mp3",
            "東方天空璋 ～ Hidden Star in Four Seasons/上海アリス幻樂団 - 幻想のホワイトトラベラー.mp3"
        ],
        "tags": ["天空璋"]
    },
    "丁礼田舞・爾子田里乃": {
        "card": [
            "デフォルメ舞_0000.png",
            "デフォルメ里乃_0000.png"
        ],
        "music": [
            "東方天空璋 ～ Hidden Star in Four Seasons/上海アリス幻樂団 - クレイジーバックダンサーズ.mp3",
            "東方天空璋 ～ Hidden Star in Four Seasons/上海アリス幻樂団 - 禁断の扉の向こうは、この世かあの世か.mp3",
            "東方天空璋 ～ Hidden Star in Four Seasons/上海アリス幻樂団 - 幻想のホワイトトラベラー.mp3",
            "東方天空璋 ～ Hidden Star in Four Seasons/上海アリス幻樂団 - もうドアには入れない.mp3",
            "七夕坂夢幻能 ~ Taboo Japan Disentanglement/上海アリス幻樂団 - 禁断の扉の向こうは、この世かあの世か.mp3",
            "七夕坂夢幻能 ~ Taboo Japan Disentanglement/上海アリス幻樂団 - クレイジーバックダンサーズ.mp3"
        ],
        "tags": ["天空璋"]
    },
    "摩多羅隠岐奈": {
        "card": "デフォルメ隠岐奈_0000.png",
        "music": [
            "東方天空璋 ～ Hidden Star in Four Seasons/上海アリス幻樂団 - 秘匿されたフォーシーズンズ.mp3",
            "東方天空璋 ～ Hidden Star in Four Seasons/上海アリス幻樂団 - イントゥ・バックドア.mp3",
            "東方天空璋 ～ Hidden Star in Four Seasons/上海アリス幻樂団 - もうドアには入れない.mp3",
            "東方天空璋 ～ Hidden Star in Four Seasons/上海アリス幻樂団 - 秘神マターラ　～ Hidden Star in All Seasons..mp3",
            "七夕坂夢幻能 ~ Taboo Japan Disentanglement/上海アリス幻樂団 - 秘匿されたフォーシーズンズ.mp3"
        ],
        "tags": ["天空璋"]
    },

    "戎瓔花": {
        "card": "デフォルメ戎_0000.png",
        "music": [
            "東方鬼形獣 ～ Wily Beast and Weakest Creature/上海アリス幻樂団 - ジェリーストーン.mp3",
            "東方鬼形獣 ～ Wily Beast and Weakest Creature/上海アリス幻樂団 - 地蔵だけが知る哀嘆.mp3",
            "七夕坂夢幻能 ~ Taboo Japan Disentanglement/上海アリス幻樂団 - 地蔵だけが知る哀嘆.mp3"
        ],
        "tags": ["鬼形獣"]
    },
    "牛崎潤美": {
        "card": "デフォルメ潤美_0000.png",
        "music": [
            "東方鬼形獣 ～ Wily Beast and Weakest Creature/上海アリス幻樂団 - 石の赤子と水中の牛.mp3",
            "東方鬼形獣 ～ Wily Beast and Weakest Creature/上海アリス幻樂団 - ロストリバー.mp3"
        ],
        "tags": ["鬼形獣"]
    },
    "庭渡久侘歌": {
        "card": "デフォルメ久侘歌_0000.png",
        "music": [
            "東方鬼形獣 ～ Wily Beast and Weakest Creature/上海アリス幻樂団 - セラフィックチキン.mp3",
            "東方鬼形獣 ～ Wily Beast and Weakest Creature/上海アリス幻樂団 - 不朽の曼珠沙華.mp3",
            "東方鬼形獣 ～ Wily Beast and Weakest Creature/上海アリス幻樂団 - 輝かしき弱肉強食の掟.mp3",
            "強欲な獣のムジカ/黄昏フロンティア - セラフィックチキン.mp3"
        ],
        "tags": ["鬼形獣"]
    },
    "吉弔八千慧": {
        "card": "デフォルメ八千慧_0000.png",
        "music": [
            "東方鬼形獣 ～ Wily Beast and Weakest Creature/上海アリス幻樂団 - トータスドラゴン　～ 幸運と不運.mp3",
            "東方鬼形獣 ～ Wily Beast and Weakest Creature/上海アリス幻樂団 - アンロケイテッドヘル.mp3"
        ],
        "tags": ["鬼形獣"]
    },
    "杖刀偶磨弓": {
        "card": "デフォルメ磨弓_0000.png",
        "music": [
            "東方鬼形獣 ～ Wily Beast and Weakest Creature/上海アリス幻樂団 - セラミックスの杖刀人.mp3",
            "東方鬼形獣 ～ Wily Beast and Weakest Creature/上海アリス幻樂団 - ビーストメトロポリス.mp3",
            "東方鬼形獣 ～ Wily Beast and Weakest Creature/上海アリス幻樂団 - エレクトリックヘリテージ.mp3"
        ],
        "tags": ["鬼形獣"]
    },
    "埴安神袿姫": {
        "card": "デフォルメ袿姫_0000.png",
        "music": "東方鬼形獣 ～ Wily Beast and Weakest Creature/上海アリス幻樂団 - 偶像に世界を委ねて　～ Idoratrize World.mp3",
        "tags": ["鬼形獣"]
    },
    "驪駒早鬼": {
        "card": "デフォルメ早鬼_0000.png",
        "music": [
            "東方鬼形獣 ～ Wily Beast and Weakest Creature/上海アリス幻樂団 - 聖徳太子のペガサス　～ Dark Pegasus.mp3",
            "東方鬼形獣 ～ Wily Beast and Weakest Creature/上海アリス幻樂団 - 輝かしき弱肉強食の掟.mp3"
        ],
        "tags": ["鬼形獣"]
    },

    "豪徳寺ミケ": {
        "card": "デフォルメミケ_0000.png",
        "music": [
            "東方虹龍洞 ～ Unconnected Marketeers/上海アリス幻樂団 - 大吉キトゥン.mp3",
            "東方虹龍洞 ～ Unconnected Marketeers/上海アリス幻樂団 - 妖異達の通り雨.mp3"
        ],
        "tags": ["虹龍洞"]
    },
    "山城たかね": {
        "card": "デフォルメたかね_0000.png",
        "music": [
            "東方虹龍洞 ～ Unconnected Marketeers/上海アリス幻樂団 - バンデットリィテクノロジー.mp3",
            "東方虹龍洞 ～ Unconnected Marketeers/上海アリス幻樂団 - 深緑に隠された断崖.mp3"
        ],
        "tags": ["虹龍洞"]
    },
    "駒草山如": {
        "card": "デフォルメ駒草_0000.png",
        "music": [
            "東方虹龍洞 ～ Unconnected Marketeers/上海アリス幻樂団 - スモーキングドラゴン.mp3",
            "東方虹龍洞 ～ Unconnected Marketeers/上海アリス幻樂団 - 駒草咲くパーペチュアルスノー.mp3",
            "七夕坂夢幻能 ~ Taboo Japan Disentanglement/上海アリス幻樂団 - スモーキングドラゴン.mp3"
        ],
        "tags": ["虹龍洞"]
    },
    "玉造魅須丸": {
        "card": "デフォルメ魅須丸_0000.png",
        "music": [
            "東方虹龍洞 ～ Unconnected Marketeers/上海アリス幻樂団 - 神代鉱石.mp3",
            "東方虹龍洞 ～ Unconnected Marketeers/上海アリス幻樂団 - 廃れゆく産業遺構.mp3"
        ],
        "tags": ["虹龍洞"]
    },
    "飯綱丸龍": {
        "card": "デフォルメ龍_0000.png",
        "music": "東方虹龍洞 ～ Unconnected Marketeers/上海アリス幻樂団 - 星降る天魔の山.mp3",
        "tags": ["虹龍洞"]
    },
    "天弓千亦": {
        "card": "デフォルメ千亦_0000.png",
        "music": [
            "東方虹龍洞 ～ Unconnected Marketeers/上海アリス幻樂団 - あの賑やかな市場は今どこに　～ Immemorial Marketeers.mp3",
            "東方虹龍洞 ～ Unconnected Marketeers/上海アリス幻樂団 - ルナレインボー.mp3"
        ],
        "tags": ["虹龍洞"]
    },
    "姫虫百々世": {
        "card": "デフォルメ百々世_0000.png",
        "music": [
            "東方虹龍洞 ～ Unconnected Marketeers/上海アリス幻樂団 - 龍王殺しのプリンセス.mp3",
            "東方虹龍洞 ～ Unconnected Marketeers/上海アリス幻樂団 - 幻想の地下大線路網.mp3"
        ],
        "tags": ["虹龍洞"]
    },

    "菅牧典": {
        "card": "デフォルメ典_0000.png",
        "music": [
            "東方獣王園 ～ Unfinished Dream of All Living Ghost/上海アリス幻樂団 - 待ちわびた逢魔が時.mp3",
            "東方虹龍洞 ～ Unconnected Marketeers/上海アリス幻樂団 - 幻想の地下大線路網.mp3",
            "東方虹龍洞 ～ Unconnected Marketeers/上海アリス幻樂団 - ルナレインボー.mp3"
        ],
        "tags": ["虹龍洞", "獣王園"]
    },
    "孫美天": {
        "card": "デフォルメ孫美天_0000.png",
        "music": "東方獣王園 ～ Unfinished Dream of All Living Ghost/上海アリス幻樂団 - タイニーシャングリラ.mp3",
        "tags": ["獣王園"]

    },
    "三頭慧ノ子": {
        "card": "デフォルメ慧ノ子_0000.png",
        "music": "東方獣王園 ～ Unfinished Dream of All Living Ghost/上海アリス幻樂団 - 勇敢で有閑な妖獣.mp3",
        "tags": ["獣王園"]

    },
    "天火人ちやり": {
        "card": "デフォルメ天火人ちやり_0000.png",
        "music": "東方獣王園 ～ Unfinished Dream of All Living Ghost/上海アリス幻樂団 - 吸血怪獣チュパカブラ.mp3",
        "tags": ["獣王園"]

    },
    "豫母都日狭美": {
        "card": "デフォルメ豫母都日狭美_0000.png",
        "music": "東方獣王園 ～ Unfinished Dream of All Living Ghost/上海アリス幻樂団 - 振り向かない黄泉の道.mp3",
        "tags": ["獣王園"]

    },
    "日白残無": {
        "card": "デフォルメ日白残無_0000.png",
        "music": "東方獣王園 ～ Unfinished Dream of All Living Ghost/上海アリス幻樂団 - 逸脱者達の無礙光　～ Kingdam of Nothingness..mp3",
        "tags": ["獣王園"]

    },
    "饕餮尤魔": {
        "card": "デフォルメ尤魔_0000.png",
        "music": [
            "東方獣王園 ～ Unfinished Dream of All Living Ghost/上海アリス幻樂団 - 強欲な獣のメメント.mp3",
            "強欲な獣のムジカ/上海アリス幻樂団 - 強欲な獣のメメント.mp3"
        ],
        "tags": ["獣王園"]
    },
    "伊吹萃香": {
        "card": "デフォルメ萃香_0000.png",
        "music": [
            "幻想曲抜萃 ～ 東方萃夢想/NightDisc/18. 御伽の国の鬼が島.mp3",
            "幻想曲抜萃 ～ 東方萃夢想/NightDisc/17. 砕月.mp3",
            "全人類ノ天楽録 ～ 東方緋想天/ArrangeDisc/11. 砕月.mp3"
        ],
        "tags": ["萃夢想"]
    },
    "永江衣玖": {
        "card": "デフォルメ衣玖_0000.png",
        "music": [
            "全人類ノ天楽録 ～ 東方緋想天/OriginalDisc/13. 黒い海に紅く ～ Legendary Fish.mp3",
            "全人類ノ天楽録 ～ 東方緋想天/ArrangeDisc/15. 黒い海に紅く ～ Legendary Fish.mp3"
        ],
        "tags": ["緋想天"]
    },
    "比那名居天子": {
        "card": "デフォルメ天子_0000.png",
        "music": [
            "全人類ノ天楽録 ～ 東方緋想天/OriginalDisc/15. 有頂天変 ～ Wonderful Heaven.mp3",
            "全人類ノ天楽録 ～ 東方緋想天/ArrangeDisc/16. 有頂天変 ～ Wonderful Heaven.mp3",
            "完全憑依ディスコグラフィ/上海アリス幻樂団 - 有頂天変　～ Wonderful Heaven.mp3",
            "完全憑依ディスコグラフィ/あきやまうに - 至る有頂天.mp3"
        ],
        "tags": ["緋想天"]
    },
    "秦こころ": {
        "card": "デフォルメこころ_0000.png",
        "music": [
            "暗黒能楽集・心綺楼/黄昏フロンティア・上海アリス幻樂団 - 亡失のエモーション.mp3",
            "深秘的楽曲集/黄昏フロンティア・上海アリス幻樂団 - 亡失のエモーション.mp3",
            "完全憑依ディスコグラフィ/あきやまうに - 心綺楼演舞.mp3",
            "旧約酒場 ～ Dateless Bar Old Adam/上海アリス幻樂団 - 亡失のエモーション.mp3"
        ],
        "tags": ["心綺楼"]
    },
    "茨木華扇": {
        "card": "デフォルメ華扇_0000.png",
        "music": [
            "深秘的楽曲集/黄昏フロンティア・上海アリス幻樂団 - 華狭間のバトルフィールド.mp3",
            "完全憑依ディスコグラフィ/上海アリス幻樂団 - 華狭間のバトルフィールド.mp3",
            "完全憑依ディスコグラフィ/あきやまうに - 千の試練を超えて.mp3"
        ],
        "tags": ["深秘録"]
    },
    "宇佐見菫子": {
        "card": "デフォルメ菫子_0000.png",
        "music": [
            "深秘的楽曲集/黄昏フロンティア・上海アリス幻樂団 - ラストオカルティズム　～ 現し世の秘術師.mp3",
            "完全憑依ディスコグラフィ/上海アリス幻樂団 - ラストオカルティズム　～ 現し世の秘術師.mp3",
            "完全憑依ディスコグラフィ/あきやまうに - 夢世界フォークロア.mp3"
        ],
        "tags": ["深秘録"]
    },
    "依神女苑・紫苑": {
        "card": [
            "デフォルメ女苑_0000.png",
            "デフォルメ紫苑_0000.png"
        ],
        "music": [
            "完全憑依ディスコグラフィ/上海アリス幻樂団 - 今宵は飄逸なエゴイスト(Live ver)　～ Egoistic Flowers.mp3",
            "強欲な獣のムジカ/黄昏フロンティア - 今宵は飄逸なエゴイスト　～ Egoistic Flowers.mp3"
        ],
        "tags": ["憑依華"]
    }
}